{
  "type": "service_account",
  "project_id": "travel-app-fac13",
  "private_key_id": "9a9469034d679c669cd12db0623099693de0012a",
  "private_key": "-----BEGIN PRIVATE KEY-----\nMIIEvgIBADANBgkqhkiG9w0BAQEFAASCBKgwggSkAgEAAoIBAQDFHJSRllsECD+E\nCHalBmYqsmmlF1QNgCijoOGvRO8uJnI8KzJ0aQ90rL3xW6MOZFpgpO77M9gZmiH9\niMe79OR4XPPV7XA0g7fvvZ3YbuMrsNSjqI3gOU0l+tJE4s4I6s/W72Xvgjg6igNw\nBjpsT+oNWKj5IWkA1ebu+2RM48jYhwgieEFr6xIcacZ6h+MIBup2WUQ6fZ+Ppkwi\nRn/jFQdJ92wtmbb07bJaYQh4+1nEiAxO+G0elo68M6lRvgle/QXW9em7QWKqKg+1\nCJZJv8geVJ9sRchaHe0br6h4KvDd1at61dl3mDk9WC1dheIkyAEkXzbhQT9c0q7c\noVo77uEjAgMBAAECggEAAVJlPqqy9o51mpWR8h5eXgfvRG+pHSQQYbSI/utn7TfN\nyVCC2JwBwgcMiQtTxxtuLbq9bYrV9qn9c11Q9ZY5WANLkVIzz+5YM+/iGJr5xAe+\nDVDqjqfjuA78DQE2X4HvneHiHZ6ScPYO+tfX2XUZvTgsfes28I3+q/icnhVi+ey+\n3ppGeD5Ri7c2vGPkD+mq9aZf7Go15/uyvqElqVcxEaUVNH7H/lU2wG3qcw1yPA1U\nL1wiTwwpM5DieRlBcq/aa6R0ympctq/z7bNIBRggAP7ySI2weTuhnOIkf4xEPWIi\n82BHB9G8920FibjehQpa7J7vmKpYJl30ed1SIO+AfQKBgQD4HOoL51n82QsRjGf9\njeSjA2L0P4oAa3ouuswvfUj9RaUT3BwkzcRhCl6MHvElbDevYAvjAFclJJHB2UR6\nrhj0szLhZvYaoMaeaPtdE/IwL4moM7uXs1BxlVMikH4FmZaEVX8gAjSLmkL5ViC/\nS5hFbe7mr+7bn3uo/jJfyYxgHwKBgQDLYKEY9yW8/1wdIi7HAuH9Sf5spPUunBo3\nbMh89uuLtsNu/VSDO7f522qHb/GStS67efNuWDjcNW80qK/9+mYwThBAB+Zv6GGg\nrhPLMaQuJGjyRRQ42f/09qGdrPti4QGBttNt+JUFyYiOK9qn/2lrWCiKrEJ6n90V\ns3LEtZXOfQKBgQDcqmKiKaXIEoUcm2KViJAzRzzH/IbRLsWhL/OPvP6ge0OBMT86\noGMq510FhDN21BOGf4ay4seeujKEVKbp8VMytvnmrHrvXdSoaLg+pRG+N1lX5oLO\nPeWqz2L8F8RtWJccpSmGH0/6ZT1xol9Ho4UPIuHZ+9kVLXd+6m2E8a1OgwKBgQCW\niqVUtITDvIXzrrzPZQvhEGd7BjPS14v0YNqa3a+HULajLnPjXE4XbdoR/MPlY6X+\n8gtGL5mPLyJs6Ty0lCgWM4KF0xM43Nt/M7vFGa681Qi15HpOhteW/QSukT/XdlRG\nLw2cBnhQu1gQXNfSqRXgdnY0B8SBvlnJWXZnsz37hQKBgGHyT4p+1rI9jlKP47Ob\nmeAEFEbxbpeLAg3mPjlFa0Dc+xeQrSzTHCvoJascs9rKdSQAmAUAnUcF6uSU10E4\nmvhyJWBSCKZ0pIbdCnrNALMkCF7ooTTlg1JgplgUf7ilmCdPLWPZgGvXpP5OcaeM\n7+5X1azm6i27pgjS3HF7IKLa\n-----END PRIVATE KEY-----\n",
  "client_email": "firebase-adminsdk-lq9gp@travel-app-fac13.iam.gserviceaccount.com",
  "client_id": "106279909472474155829",
  "auth_uri": "https://accounts.google.com/o/oauth2/auth",
  "token_uri": "https://oauth2.googleapis.com/token",
  "auth_provider_x509_cert_url": "https://www.googleapis.com/oauth2/v1/certs",
  "client_x509_cert_url": "https://www.googleapis.com/robot/v1/metadata/x509/firebase-adminsdk-lq9gp%40travel-app-fac13.iam.gserviceaccount.com",
  "universe_domain": "googleapis.com"
}
